Exercise 4A - Solutions: Scripting in R - Conditions and For-loops – R for Data Science
…
Exercise 4A - Solutions: Scripting in R - Conditions and For-loops

In this exercise you will practice your scripting in R.

Getting started

Load libraries and the joined diabetes data set.

library(tidyverse)
library(glue)

diabetes_glucose <- readxl::read_excel('../data/exercise2_diabetes_glucose.xlsx')
diabetes_glucose

# A tibble: 1,422 × 13
   ID    Sex      Age BloodPressure   BMI PhysicalActivity Smoker  Diabetes
   <chr> <chr>  <dbl>         <dbl> <dbl>            <dbl> <chr>      <dbl>
 1 34120 Female    28            75  25.4               92 Never          0
 2 34120 Female    28            75  25.4               92 Never          0
 3 34120 Female    28            75  25.4               92 Never          0
 4 27458 Female    55            72  24.6               86 Never          0
 5 27458 Female    55            72  24.6               86 Never          0
 6 27458 Female    55            72  24.6               86 Never          0
 7 70630 Male      22            80  24.9              139 Unknown        0
 8 70630 Male      22            80  24.9              139 Unknown        0
 9 70630 Male      22            80  24.9              139 Unknown        0
10 13861 Female    56            72  37.1               64 Unknown        1
# ℹ 1,412 more rows
# ℹ 5 more variables: Serum_ca2 <dbl>, Married <chr>, Work <chr>,
#   Measurement <chr>, `Glucose (mmol/L)` <dbl>
…
[1] 1422

Add the list as a new column in the diabetes_glucose data frame. Note: Before assigning it, use the unlist() function to convert the list to a flat vector. This ensures that each value aligns correctly with the rows of the data frame.

# Solution 1
diabetes_glucose$risk_status <- unlist(risk_status)

# Solution 2
diabetes_glucose <- diabetes_glucose %>% 
  mutate(risk_status = unlist(risk_status))

diabetes_glucose %>% select(BMI, Smoker, risk_status)

# A tibble: 1,422 × 3
     BMI Smoker  risk_status  
   <dbl> <chr>   <chr>        
 1  25.4 Never   Low risk     
 2  25.4 Never   Low risk     
 3  25.4 Never   Low risk     
 4  24.6 Never   Low risk     
 5  24.6 Never   Low risk     
 6  24.6 Never   Low risk     
 7  24.9 Unknown Low risk     
 8  24.9 Unknown Low risk     
 9  24.9 Unknown Low risk     
10  37.1 Unknown Moderate risk
# ℹ 1,412 more rows
…
