Exercise 5B - Solutions: Kmeans and Random Forest – R for Data Science
…
Make count tables of your categorical/factor variables, are they balanced?

# Count observations per level/group for each categorical variable

factor_counts <- optML[,-1] %>%
  dplyr::select(where(is.character)) %>%
  pivot_longer(everything(), names_to = "variable", values_to = "level") %>%
  arrange(variable) %>%
  dplyr::count(variable, level, sort = FALSE)

factor_counts

# A tibble: 66 × 3
   variable                    level     n
   <chr>                       <chr> <int>
 1 Any.SAE.                    No      865
 2 Any.SAE.                    Yes     135
 3 Any.live.ptb.sb.sp.ab.in.ab No      432
 4 Any.live.ptb.sb.sp.ab.in.ab Yes     568
 5 Any.stillbirth              No      894
 6 Any.stillbirth              Yes     106
 7 BL.Anti.inf                 0       853
 8 BL.Anti.inf                 1       147
 9 BL.Antibio                  0       924
10 BL.Antibio                  1        76
# ℹ 56 more rows
…
Split your dataset into train and test set, you should have 70% of the data in the training set and 30% in the test set. How you chose to split is up to you, BUT afterwards you should ensure that for the categorical/factor variables all levels are represented in both sets.

set.seed(123)

idx <- createDataPartition(optML$Preg.ended...37.wk, p = 0.7, list = FALSE)
train <- optML[idx, ]
test  <- optML[-idx, ]

train %>%
  dplyr::select(where(is.character)) %>%
  pivot_longer(everything(), names_to = "variable", values_to = "level") %>%
  arrange(variable) %>%
  dplyr::count(variable, level, sort = FALSE)

# A tibble: 64 × 3
   variable                    level     n
   <chr>                       <chr> <int>
 1 Any.live.ptb.sb.sp.ab.in.ab No      304
 2 Any.live.ptb.sb.sp.ab.in.ab Yes     397
 3 Any.stillbirth              No      620
 4 Any.stillbirth              Yes      81
 5 BL.Anti.inf                 0       601
 6 BL.Anti.inf                 1       100
 7 BL.Antibio                  0       643
 8 BL.Antibio                  1        58
 9 Bact.vag                    No      606
10 Bact.vag                    Yes      95
# ℹ 54 more rows

test %>%
  dplyr::select(where(is.character)) %>%
  pivot_longer(everything(), names_to = "variable", values_to = "level") %>%
  arrange(variable) %>%
  dplyr::count(variable, level, sort = FALSE)

# A tibble: 64 × 3
   variable                    level     n
   <chr>                       <chr> <int>
 1 Any.live.ptb.sb.sp.ab.in.ab No      128
 2 Any.live.ptb.sb.sp.ab.in.ab Yes     171
 3 Any.stillbirth              No      274
 4 Any.stillbirth              Yes      25
 5 BL.Anti.inf                 0       252
 6 BL.Anti.inf                 1        47
 7 BL.Antibio                  0       281
 8 BL.Antibio                  1        18
 9 Bact.vag                    No      271
10 Bact.vag                    Yes      28
# ℹ 54 more rows
…
