Exercise 4B - Solutions: Scripting in R - Functions – R for Data Science
…
Exercise 4B - Solutions: Scripting in R - Functions

In this exercise you will practice creating and applying user-defined functions.

Getting started

Load libraries and the joined diabetes data set.

library(tidyverse)
library(glue)

diabetes_glucose <- readxl::read_excel('../data/exercise2_diabetes_glucose.xlsx')
diabetes_glucose

# A tibble: 1,422 × 13
   ID    Sex      Age BloodPressure   BMI PhysicalActivity Smoker  Diabetes
   <chr> <chr>  <dbl>         <dbl> <dbl>            <dbl> <chr>      <dbl>
 1 34120 Female    28            75  25.4               92 Never          0
 2 34120 Female    28            75  25.4               92 Never          0
 3 34120 Female    28            75  25.4               92 Never          0
 4 27458 Female    55            72  24.6               86 Never          0
 5 27458 Female    55            72  24.6               86 Never          0
 6 27458 Female    55            72  24.6               86 Never          0
 7 70630 Male      22            80  24.9              139 Unknown        0
 8 70630 Male      22            80  24.9              139 Unknown        0
 9 70630 Male      22            80  24.9              139 Unknown        0
10 13861 Female    56            72  37.1               64 Unknown        1
# ℹ 1,412 more rows
# ℹ 5 more variables: Serum_ca2 <dbl>, Married <chr>, Work <chr>,
#   Measurement <chr>, `Glucose (mmol/L)` <dbl>
…
for (i in 1:nrow(diabetes_glucose)) {
  
  risk_score <- calculate_risk_score(BloodPressure = diabetes_glucose$BloodPressure[i], 
                                     BMI = diabetes_glucose$BMI[i], 
                                     Smoking = diabetes_glucose$Smoker[i], 
                                     PhysicalActivity = diabetes_glucose$PhysicalActivity[i])
  
  diabetes_glucose[i, 'Risk_score'] <- risk_score
  
}

diabetes_glucose

# A tibble: 1,422 × 14
   ID    Sex      Age BloodPressure   BMI PhysicalActivity Smoker  Diabetes
   <chr> <chr>  <dbl>         <dbl> <dbl>            <dbl> <chr>      <dbl>
 1 34120 Female    28            75  25.4               92 Never          0
 2 34120 Female    28            75  25.4               92 Never          0
 3 34120 Female    28            75  25.4               92 Never          0
 4 27458 Female    55            72  24.6               86 Never          0
 5 27458 Female    55            72  24.6               86 Never          0
 6 27458 Female    55            72  24.6               86 Never          0
 7 70630 Male      22            80  24.9              139 Unknown        0
 8 70630 Male      22            80  24.9              139 Unknown        0
 9 70630 Male      22            80  24.9              139 Unknown        0
10 13861 Female    56            72  37.1               64 Unknown        1
# ℹ 1,412 more rows
# ℹ 6 more variables: Serum_ca2 <dbl>, Married <chr>, Work <chr>,
#   Measurement <chr>, `Glucose (mmol/L)` <dbl>, Risk_score <dbl>
…
