Exercise 4 - Scripting in R – R for Data Science
…
Exercise 4 - Scripting in R

In this exercise you will practice your scripting.

Getting started

Load libaries and data

library(tidyverse)
library(glue)

diabetes_glucose <- read_rds('../out/diabetes_glucose.rds')
diabetes_glucose

# A tibble: 490 × 12
   ID    Sex      Age BloodPressure   BMI PhysicalActivity Smoker  Diabetes
   <fct> <chr>  <dbl>         <dbl> <dbl>            <dbl> <chr>   <chr>   
 1 9046  Male      34            84  24.7               93 Unknown 0       
 2 51676 Male      25            74  22.5              102 Unknown 0       
 3 60182 Male      50            80  34.5               98 Unknown 1       
 4 1665  Female    27            60  26.3               82 Never   0       
 5 56669 Male      35            84  35                 58 Smoker  1       
 6 53882 Female    31            78  43.3               59 Smoker  1       
 7 10434 Male      52            86  33.3               58 Never   1       
 8 27419 Female    54            78  35.2               74 Former  1       
 9 60491 Female    41            90  39.8               67 Smoker  1       
10 12109 Female    36            82  30.8               81 Smoker  1       
# ℹ 480 more rows
# ℹ 4 more variables: Serum_ca2 <dbl>, Married <chr>, Work <chr>, OGTT <list>
…
