Exercise 5B - Solutions – R for Data Science
…
Make count tables of your categorical/factor variables, are they balanced?

# Count observations per level/group for each categorical variable

factor_counts <- optML[,-1] %>%
  dplyr::select(where(is.character)) %>%
  pivot_longer(everything(), names_to = "Variable", values_to = "Level") %>%
  count(Variable, Level, name = "Count")

factor_counts

# A tibble: 34 × 3
   Variable                    Level Count
   <chr>                       <chr> <int>
 1 Any.SAE.                    No      865
 2 Any.SAE.                    Yes     135
 3 Any.live.ptb.sb.sp.ab.in.ab No      432
 4 Any.live.ptb.sb.sp.ab.in.ab Yes     568
 5 Any.stillbirth              No      894
 6 Any.stillbirth              Yes     106
 7 Bact.vag                    No      877
 8 Bact.vag                    Yes     123
 9 Clinic                      KY      247
10 Clinic                      MN      289
# ℹ 24 more rows
…
# Training set
train <- optML %>% 
  sample_frac(0.70) 

# Check group levels
train_counts <- train[,-1] %>%
  dplyr::select(where(is.character)) %>%
  pivot_longer(everything(), names_to = "Variable", values_to = "Level") %>%
  count(Variable, Level, name = "Count")

train_counts

# A tibble: 32 × 3
   Variable                    Level Count
   <chr>                       <chr> <int>
 1 Any.live.ptb.sb.sp.ab.in.ab No      302
 2 Any.live.ptb.sb.sp.ab.in.ab Yes     398
 3 Any.stillbirth              No      629
 4 Any.stillbirth              Yes      71
 5 Bact.vag                    No      620
 6 Bact.vag                    Yes      80
 7 Clinic                      KY      169
 8 Clinic                      MN      201
 9 Clinic                      MS      189
10 Clinic                      NY      141
# ℹ 22 more rows
…
