Presentation 2: Summary Statistics and Data Wrangling – R for Data Science
…
gene_summary <- gene_summary %>%
  pivot_longer(
    cols = everything(),
    names_to = c("gene", "statistic"), 
    names_sep = "__") 

When names_to creates more than one output column, pivot_longer() requires either names_sep or names_pattern to define how names should be split.

gene_summary %>%
  pivot_wider(
    names_from = statistic, 
    values_from = value)

# A tibble: 44 × 5
   gene      mean     sd   min   max
   <chr>    <dbl>  <dbl> <dbl> <dbl>
 1 COL9A2  4499   7654.     21 99466
 2 COL23A1 1454.  1965.      4 17895
 3 COL11A1 4069.  6798.      3 34894
 4 COL17A1   76.4  265.      0  3057
 5 COL5A3  1425.  2261.     25 19494
 6 COL4A4   163.   278.      5  4004
 7 COL19A1   14.0   32.0     0   301
 8 COL16A1 2556.  2933.    109 23266
 9 COL9A3   751.  1938.      7 19558
10 COL20A1   14.5   33.0     0   429
# ℹ 34 more rows
…
# Set a high threshold (top 0.1%)
#threshold <- quantile(hclust_int$height, 0.99)
threshold <- 8

cl <- cutree(hclust_int, h = threshold)

df_int <- df_int %>% 
  mutate(cluster = cl)

df_int %>% select(unique_patient_ID, 
                  age_at_initial_path_diagn, 
                  percent_stromal_cells, 
                  cluster)

# A tibble: 397 × 4
   unique_patient_ID age_at_initial_path_diagn percent_stromal_cells cluster
   <chr>                                 <dbl>                 <dbl>   <int>
 1 TCGA-20-0987-01A                         61                     1       1
 2 TCGA-24-0979-01A                         53                    25       1
 3 TCGA-23-1021-01B                         45                     0       1
 4 TCGA-04-1337-01A                         78                    36       1
 5 TCGA-23-1032-01A                         73                     5       1
 6 TCGA-20-0991-01A                         78                     4       1
 7 TCGA-24-0982-01A                         77                    30       1
 8 TCGA-23-1028-01A                         43                    10       1
 9 TCGA-04-1341-01A                         85                    25       1
10 TCGA-23-1030-01A                         64                     2       1
# ℹ 387 more rows
…
