Presentation 1: Data Cleaning – R for Data Science
…
Lets look at the variable vital_status from the clinical metadata. This variable contains information about whether the patient is alive or deceased and in the analysis below we will denote this our outcome / response variable.

# output: vector the tidyverse
df_ov %>%
  select(vital_status)

# A tibble: 415 × 1
   vital_status
   <chr>       
 1 "deceased"  
 2 "deceased"  
 3 "deceased"  
 4 "deceased"  
 5 "deceased"  
 6 "living"    
 7 "living"    
 8 "living"    
 9 "deceased"  
10 "deceased " 
# ℹ 405 more rows
…
levels(df_ov$summarygrade) # low, high

[1] "low"  "high"

Step 7: Creating New Variables

Now, we would like to create a new data column by extracting specific information or combining other columns.

Add a column combining other columns into one:

df_ov %>% select(percent_stromal_cells, 
                 percent_normal_cells)

# A tibble: 415 × 2
   percent_stromal_cells percent_normal_cells
                   <dbl>                <dbl>
 1                     1                   16
 2                    25                    0
 3                     0                    0
 4                    36                    0
 5                     5                   15
 6                    NA                   NA
 7                    NA                    0
 8                     0                    2
 9                     0                    0
10                    30                    0
# ℹ 405 more rows

df_ov <- df_ov %>% 
  mutate(percent_not_cancer_cells = percent_stromal_cells + percent_normal_cells)

df_ov %>% select(percent_stromal_cells, 
                 percent_normal_cells, 
                 percent_not_cancer_cells)

# A tibble: 415 × 3
   percent_stromal_cells percent_normal_cells percent_not_cancer_cells
                   <dbl>                <dbl>                    <dbl>
 1                     1                   16                       17
 2                    25                    0                       25
 3                     0                    0                        0
 4                    36                    0                       36
 5                     5                   15                       20
 6                    NA                   NA                       NA
 7                    NA                    0                       NA
 8                     0                    2                        2
 9                     0                    0                        0
10                    30                    0                       30
# ℹ 405 more rows

For character vectors you can use functions paste and paste0 . The paste function concatenates two strings into one. This one is from baseR.

paste('TCGA', 'Data', sep = ' ')

[1] "TCGA Data"

df_ov <- df_ov %>% 
  mutate(stage = paste(summarystage, summarygrade, sep = '-'))

df_ov %>% select(stage)

# A tibble: 415 × 1
   stage     
   <chr>     
 1 late-high 
 2 late-high 
 3 late-high 
 4 late-low  
 5 late-high 
 6 late-high 
 7 late-high 
 8 early-high
 9 late-high 
10 late-high 
# ℹ 405 more rows
…
