Presentation 5: Intro to Modelling in R – R for Data Science
…
library(tidyverse)
library(caTools)
library(ModelMetrics)
library(ggfortify)
library(readxl)

Load data

In order to focus on the technical aspects we’ll use a very simple toy dataset. It contains the number of cigarettes smoked per day and how long the person lived. It is inspired by this paper if you want to take a look.

df_smoke <- as_tibble(read.csv('../data/smoking_cat.csv'))
df_smoke

# A tibble: 100 × 3
   daily_cigarettes  life exercise
              <int> <int>    <int>
 1                7    76        0
 2               11    73        0
 3               27    72        1
 4               23    71        0
 5               13    74        0
 6               11    76        1
 7               20    71        0
 8                6    76        1
 9               23    72        1
10               32    70        2
# ℹ 90 more rows
…
