Presentation 5C: Modelling in R - Elastic Net Regression – R for Data Science
…
Now, let’s check the balance of the categorical/factor variables.

HD_EN %>%
  dplyr::select(where(is.factor)) %>%
  pivot_longer(everything(), names_to = "Variable", values_to = "Level") %>%
  dplyr::count(Variable, Level, name = "Count")

# A tibble: 22 × 3
   Variable       Level Count
   <chr>          <fct> <int>
 1 DefectType     0         7
 2 DefectType     1        64
 3 DefectType     2       544
 4 DefectType     3       410
 5 chestPainType  0       497
 6 chestPainType  1       167
 7 chestPainType  2       284
 8 chestPainType  3        77
 9 exerciseAngina 0       680
10 exerciseAngina 1       345
# ℹ 12 more rows
…
