Presentation 5B: Kmeans and Random Forest – R for Data Science
…
library(tidyverse)
library(ggplot2)
library(ContaminatedMixt)
library(factoextra)

Let’s load in the dataset

data('wine') #load dataset
df_wine <- wine %>% 
  as_tibble() #convert to tibble

df_wine

# A tibble: 178 × 14
   Type   Alcohol Malic   Ash Alcalinity Magnesium Phenols Flavanoids
   <fct>    <dbl> <dbl> <dbl>      <dbl>     <int>   <dbl>      <dbl>
 1 Barolo    14.2  1.71  2.43       15.6       127    2.8        3.06
 2 Barolo    13.2  1.78  2.14       11.2       100    2.65       2.76
 3 Barolo    13.2  2.36  2.67       18.6       101    2.8        3.24
 4 Barolo    14.4  1.95  2.5        16.8       113    3.85       3.49
 5 Barolo    13.2  2.59  2.87       21         118    2.8        2.69
 6 Barolo    14.2  1.76  2.45       15.2       112    3.27       3.39
 7 Barolo    14.4  1.87  2.45       14.6        96    2.5        2.52
 8 Barolo    14.1  2.15  2.61       17.6       121    2.6        2.51
 9 Barolo    14.8  1.64  2.17       14          97    2.8        2.98
10 Barolo    13.9  1.35  2.27       16          98    2.98       3.15
# ℹ 168 more rows
# ℹ 6 more variables: Nonflavanoid <dbl>, Proanthocyanins <dbl>, Color <dbl>,
#   Hue <dbl>, Dilution <dbl>, Proline <int>
…
Running k-means

For k-means it is very important that the data is numeric and scaled so we will do that before running the algorithm.

# Set seed to ensure reproducibility
set.seed(123)  

# Pull numeric variables and scale these
kmeans_df <- df_wine %>%
  dplyr::select(where(is.numeric)) %>%
  mutate(across(everything(), scale))

kmeans_df

# A tibble: 178 × 13
   Alcohol[,1] Malic[,1] Ash[,1] Alcalinity[,1] Magnesium[,1] Phenols[,1]
         <dbl>     <dbl>   <dbl>          <dbl>         <dbl>       <dbl>
 1       1.51    -0.561    0.231         -1.17         1.91         0.807
 2       0.246   -0.498   -0.826         -2.48         0.0181       0.567
 3       0.196    0.0212   1.11          -0.268        0.0881       0.807
 4       1.69    -0.346    0.487         -0.807        0.928        2.48 
 5       0.295    0.227    1.84           0.451        1.28         0.807
 6       1.48    -0.516    0.304         -1.29         0.858        1.56 
 7       1.71    -0.417    0.304         -1.47        -0.262        0.327
 8       1.30    -0.167    0.888         -0.567        1.49         0.487
 9       2.25    -0.623   -0.716         -1.65        -0.192        0.807
10       1.06    -0.883   -0.352         -1.05        -0.122        1.09 
# ℹ 168 more rows
# ℹ 7 more variables: Flavanoids <dbl[,1]>, Nonflavanoid <dbl[,1]>,
#   Proanthocyanins <dbl[,1]>, Color <dbl[,1]>, Hue <dbl[,1]>,
#   Dilution <dbl[,1]>, Proline <dbl[,1]>
…
Importantly, let’s check the balance of the categorical/factor variables.

HD %>%
  dplyr::select(where(is.factor)) %>%
  pivot_longer(everything(), names_to = "Variable", values_to = "Level") %>%
  dplyr::count(Variable, Level, name = "Count")

# A tibble: 22 × 3
   Variable       Level Count
   <chr>          <fct> <int>
 1 DefectType     0         7
 2 DefectType     1        64
 3 DefectType     2       544
 4 DefectType     3       410
 5 chestPainType  0       497
 6 chestPainType  1       167
 7 chestPainType  2       284
 8 chestPainType  3        77
 9 exerciseAngina 0       680
10 exerciseAngina 1       345
# ℹ 12 more rows
…
